{
  "token": {
    "x_api_token": "4F34AC02-F73B-469C-A796-D11C190854A0"
  },
  "zenvia": {
    "host": "https://private-anon-9ad2c60569-zenviasms.apiary-mock.com/services/send-sms",
    "auth": "Basic YnVyZ2Vya2luZy50ZXN0ZTphY2Vzc29aZW52aWEyMDIw"
  },
  "sms_config": {
    "from": "BurgerKing",
    "callback": "NONE"
  },
  "server": {
    "region": "us-east-2",
    "environment": "hml",
    "vpc_security_group": [
      "sg-0f8126c622f389de1",
      "sg-049ea1f80aa915a37"
    ],
    "vpc_subnets": [
      "subnet-050208f1735c9d38c",
      "subnet-0f4a9a129d9c3c25f",
      "subnet-0e490e474dbc4aa95"
    ]
  }
}
