{
  "token": {
    "x_api_token": "4F34AC02-F73B-469C-A796-D11C190854A0"
  },
  "redis": {
    "host": "appdevedp07",
    "port": "6379",
      "db": "4"
  },
  "server": {
    "region": "us-east-1",
    "environment": "prod",
    "vpc_security_group": [
        "sg-0b422c65dffd9942b",
        "sg-7e78f60c"
    ],
    "vpc_subnets": [
        "subnet-07b88662155869218",
        "subnet-049c04e7cd424a06d"
    ]
  }
}
